<?xml version="1.0" encoding="UTF-8" standalone="no"?>
<!-- Created with Inkscape (http://www.inkscape.org/) -->

<svg
   xmlns:dc="http://purl.org/dc/elements/1.1/"
   xmlns:cc="http://creativecommons.org/ns#"
   xmlns:rdf="http://www.w3.org/1999/02/22-rdf-syntax-ns#"
   xmlns:svg="http://www.w3.org/2000/svg"
   xmlns="http://www.w3.org/2000/svg"
   xmlns:sodipodi="http://sodipodi.sourceforge.net/DTD/sodipodi-0.dtd"
   xmlns:inkscape="http://www.inkscape.org/namespaces/inkscape"
   width="210mm"
   height="210mm"
   viewBox="0 0 210 210"
   version="1.1"
   id="svg2504"
   inkscape:version="0.92.3 (2405546, 2018-03-11)"
   sodipodi:docname="connectionLost.svg">
  <defs
     id="defs2498" />
  <sodipodi:namedview
     id="base"
     pagecolor="#ffffff"
     bordercolor="#666666"
     borderopacity="1.0"
     inkscape:pageopacity="0.0"
     inkscape:pageshadow="2"
     inkscape:zoom="0.24748738"
     inkscape:cx="306.61186"
     inkscape:cy="-395.62893"
     inkscape:document-units="mm"
     inkscape:current-layer="layer1"
     showgrid="false"
     inkscape:window-width="960"
     inkscape:window-height="1052"
     inkscape:window-x="960"
     inkscape:window-y="0"
     inkscape:window-maximized="0" />
  <metadata
     id="metadata2501">
    <rdf:RDF>
      <cc:Work
         rdf:about="">
        <dc:format>image/svg+xml</dc:format>
        <dc:type
           rdf:resource="http://purl.org/dc/dcmitype/StillImage" />
        <dc:title />
      </cc:Work>
    </rdf:RDF>
  </metadata>
  <g
     inkscape:label="Layer 1"
     inkscape:groupmode="layer"
     id="layer1"
     transform="translate(0,-87)">
    <circle
       style="opacity:1;fill:#ffffff;fill-opacity:1;fill-rule:nonzero;stroke:#aa0000;stroke-width:14.7861166;stroke-miterlimit:4;stroke-dasharray:none;stroke-opacity:1"
       id="path2460"
       cx="105.29881"
       cy="192.58685"
       r="97.127617" />
    <path
       inkscape:connector-curvature="0"
       style="fill:#000000;fill-opacity:1;fill-rule:nonzero;stroke:#000000;stroke-width:1.98300529;stroke-miterlimit:4;stroke-dasharray:none;stroke-opacity:1"
       d="m 184.40725,168.80115 c -10.69927,-10.69927 -23.17217,-18.98481 -37.07419,-24.62652 -13.42406,-5.44856 -27.60264,-8.21108 -42.146,-8.21108 -14.544089,0 -28.721924,2.76252 -42.145982,8.21108 -13.89951,5.64147 -26.373416,13.92725 -37.071691,24.62652 -3.578999,3.57924 -3.578999,9.38185 0,12.9611 3.578999,3.57924 9.382102,3.57874 12.960851,0 36.534527,-36.53453 95.979642,-36.53453 132.514172,0 1.78964,1.78938 4.13489,2.68406 6.48067,2.68406 2.34563,0 4.6908,-0.89468 6.48067,-2.68406 3.579,-3.57925 3.579,-9.3821 0,-12.9611 z"
       id="path2" />
    <path
       inkscape:connector-curvature="0"
       style="fill:#000000;fill-opacity:1;fill-rule:nonzero;stroke:#000000;stroke-width:1.98300529;stroke-miterlimit:4;stroke-dasharray:none;stroke-opacity:1"
       d="m 105.16707,169.32583 c -21.21689,0 -41.17409,8.27255 -56.197145,23.29359 -3.383622,3.38388 -3.383622,8.86968 0,12.25355 3.383624,3.38362 8.869672,3.38362 12.253296,0 24.230014,-24.23026 63.654969,-24.23026 87.882229,0 1.69172,1.69171 3.9093,2.53766 6.12664,2.53766 2.21736,0 4.43497,-0.84587 6.12666,-2.53766 3.38362,-3.38387 3.38362,-8.86967 0,-12.25355 -15.02156,-15.02104 -34.98051,-23.29359 -56.19717,-23.29359 z"
       id="path4" />
    <path
       inkscape:connector-curvature="0"
       style="fill:#000000;fill-opacity:1;fill-rule:nonzero;stroke:#000000;stroke-width:1.98300529;stroke-miterlimit:4;stroke-dasharray:none;stroke-opacity:1"
       d="m 105.16707,200.59865 c -12.899869,0 -25.03424,5.0291 -34.165998,14.1611 -3.366131,3.36639 -3.366131,8.82371 0,12.19009 3.365884,3.36588 8.823452,3.36588 12.189836,0 12.117379,-12.11738 31.834962,-12.11738 43.952352,0 1.68294,1.68295 3.88881,2.5244 6.09492,2.5244 2.20586,0 4.41198,-0.84145 6.09491,-2.5244 3.36614,-3.36638 3.36614,-8.8237 0,-12.19009 -9.13201,-9.132 -21.26563,-14.1611 -34.16602,-14.1611 z"
       id="path6" />
    <circle
       cx="105.04716"
       cy="245.99512"
       id="circle8"
       style="fill:#000000;fill-opacity:1;fill-rule:nonzero;stroke:#000000;stroke-width:1.98300529;stroke-miterlimit:4;stroke-dasharray:none;stroke-opacity:1"
       r="10.608579" />
    <rect
       style="opacity:1;fill:#aa0000;fill-opacity:1;fill-rule:nonzero;stroke:none;stroke-width:0.94253194;stroke-miterlimit:4;stroke-dasharray:none;stroke-opacity:1"
       id="rect2482"
       width="16.11562"
       height="197.57864"
       x="201.54921"
       y="-35.618916"
       transform="matrix(0.71240594,0.7017676,-0.72774422,0.68584864,0,0)" />
  </g>
</svg>
