<?xml version="1.0" encoding="UTF-8" standalone="no"?>
<svg
   xmlns:dc="http://purl.org/dc/elements/1.1/"
   xmlns:cc="http://creativecommons.org/ns#"
   xmlns:rdf="http://www.w3.org/1999/02/22-rdf-syntax-ns#"
   xmlns:svg="http://www.w3.org/2000/svg"
   xmlns="http://www.w3.org/2000/svg"
   xmlns:sodipodi="http://sodipodi.sourceforge.net/DTD/sodipodi-0.dtd"
   xmlns:inkscape="http://www.inkscape.org/namespaces/inkscape"
   width="1262pt"
   height="1262pt"
   viewBox="0 0 1262 1262"
   version="1.1"
   id="svg4348"
   inkscape:version="0.92.3 (2405546, 2018-03-11)"
   sodipodi:docname="mActionUSBLUpdatesOff (copy).svg">
  <metadata
     id="metadata4385">
    <rdf:RDF>
      <cc:Work
         rdf:about="">
        <dc:format>image/svg+xml</dc:format>
        <dc:type
           rdf:resource="http://purl.org/dc/dcmitype/StillImage" />
        <dc:title />
      </cc:Work>
    </rdf:RDF>
  </metadata>
  <defs
     id="defs4383" />
  <sodipodi:namedview
     pagecolor="#ffffff"
     bordercolor="#666666"
     borderopacity="1"
     objecttolerance="10"
     gridtolerance="10"
     guidetolerance="10"
     inkscape:pageopacity="0"
     inkscape:pageshadow="2"
     inkscape:window-width="1920"
     inkscape:window-height="1052"
     id="namedview4381"
     showgrid="false"
     inkscape:zoom="0.10578586"
     inkscape:cx="-954.06772"
     inkscape:cy="822.02209"
     inkscape:window-x="0"
     inkscape:window-y="0"
     inkscape:window-maximized="1"
     inkscape:current-layer="svg4348" />
  <path
     style="opacity:1;fill:#000000"
     inkscape:connector-curvature="0"
     id="path4356"
     d="M 45.55,4.59 C 55.88,-1.7 69.96,-0.82 79.42,6.71 86.56,12.17 90.86,20.95 91.07,29.91 91.18,45.46 85.05,61.03 74.16,72.16 63.29,83.53 47.74,90.34 32,90.46 22.53,90.58 13,86.38 7.23,78.79 -0.47,69.18 -1.23,54.78 5.41,44.41 10.72,35.72 20.61,30.37 30.74,30.15 30.95,19.83 36.58,9.78 45.55,4.59 Z" />
  <path
     style="opacity:1;fill:#000000"
     inkscape:connector-curvature="0"
     id="path4358"
     d="m 232.47,1.6 c 12.31,-3.68 26.54,1.67 33.37,12.55 3.92,5.82 5.02,12.97 5.14,19.85 -0.54,41.04 -11.9,81.87 -32.6,117.32 -19.26,33.13 -46.6,61.51 -79.01,81.97 -34.19,21.7 -73.97,34.49 -114.4,36.81 -8.09,0.61 -16.4,0.67 -24.18,-1.94 -7.83,-2.79 -14.35,-9.02 -17.52,-16.7 -3.54,-8.45 -2.92,-18.53 1.67,-26.45 4.67,-8.28 13.48,-14.05 22.95,-14.94 3.72,-0.53 7.44,0.34 11.16,0.24 34.85,-1.46 69.15,-13.46 97.39,-33.92 44.97,-32.13 73.63,-86.03 74.39,-141.36 -0.56,-6.43 0.25,-13.09 3.43,-18.79 3.77,-7.06 10.5,-12.47 18.21,-14.64 z" />
  <path
     style="opacity:1;fill:#000000"
     inkscape:connector-curvature="0"
     id="path4360"
     d="m 412.48,1.63 c 11.88,-3.71 25.68,0.92 32.92,11.04 3.25,4.44 5.25,9.79 5.69,15.28 0.18,55.52 -10.48,111.11 -31.71,162.45 -19.81,48.17 -48.68,92.59 -84.68,130.22 -37.58,39.4 -82.93,71.35 -132.67,93.48 C 149.33,437.66 91.72,450.12 34,450.5 28.38,449.84 22.56,449.27 17.46,446.62 7.32,441.6 0.46,430.45 1.08,419.07 0.97,405.12 12.19,392.35 25.92,390.29 c 4.32,-0.96 8.69,-0.04 13.04,0.1 71.09,-1.37 141.53,-24.64 199.55,-65.71 56.15,-39.46 100.5,-95.39 126.17,-159.03 16.4,-40.48 25.38,-83.96 26.24,-127.63 0.08,-6.01 -0.28,-12.25 1.96,-17.95 3.13,-8.8 10.66,-15.81 19.6,-18.44 z" />
  <path
     style="opacity:1;fill:#000000"
     inkscape:connector-curvature="0"
     id="path4362"
     d="m 594.09,1.23 c 13.16,-3.26 27.95,3.73 33.66,16.05 3.57,6.98 3.34,15.05 3.18,22.68 -1.33,89.55 -23.11,178.71 -63.23,258.78 -33.02,66.18 -78.44,126.14 -133.21,175.83 -57.06,51.93 -124.28,92.64 -196.71,119.19 -65.75,24.16 -135.76,36.67 -205.8,36.74 -9.49,0.07 -19.04,-4.16 -24.78,-11.81 -7.41,-9.41 -8.21,-23.37 -2.05,-33.61 4.88,-8.37 14.05,-14.05 23.73,-14.62 87.65,0.54 175.3,-20.95 252.88,-61.71 64.47,-33.73 121.94,-80.72 167.87,-137.14 47.42,-58.11 82.49,-126.23 102.23,-198.59 12.27,-44.92 18.83,-91.43 19.07,-138 -0.51,-6.89 0.47,-14.07 4.19,-20.02 4.12,-6.91 11.13,-11.98 18.97,-13.77 z" />
  <g
     transform="matrix(0.96702875,0,0,0.96702875,315.48864,303.45676)"
     id="g38">
    <g
       id="g6">
      <path
         inkscape:connector-curvature="0"
         d="M 944.7,611.8 C 925,810.3 764.1,969.9 565.4,988.2 330.5,1009.8 130.2,837.1 107,612.6 H 65.6 c -25.2,0 -40.9,-27.2 -28.3,-49 l 92.6,-160.3 c 12.6,-21.8 44,-21.8 56.6,0 l 92.6,160.3 c 12.6,21.8 -3.1,49 -28.3,49 h -36 C 238.1,780.2 394.1,905.9 573,879.7 705.4,860.3 812.7,755.9 835.2,624 869,426.5 717.1,254.7 525.8,254.7 c -62,0 -121.9,18 -173.3,52.1 -23.9,15.8 -56.9,12.7 -74.5,-10 -19.1,-24.7 -13.1,-59.9 12.3,-77 55.2,-37.3 117.7,-60.6 183.2,-68.7 V 90.4 h -42.9 c -14.8,0 -26.7,-12 -26.7,-26.7 v -27 c 0,-14.8 12,-26.7 26.7,-26.7 h 198.9 c 14.8,0 26.7,12 26.7,26.7 v 26.9 c 0,14.8 -12,26.7 -26.7,26.7 h -47.2 v 61.4 C 801.5,181.3 967.7,380 944.7,611.8 Z M 958.6,207.4 878,132.9 c -10.8,-10 -27.7,-9.4 -37.8,1.5 l -21.3,23.1 c -10,10.8 -9.4,27.7 1.5,37.8 l 80.6,74.5 c 10.8,10 27.7,9.4 37.8,-1.5 l 21.3,-23.1 c 10,-10.9 9.3,-27.8 -1.5,-37.8 z M 524.5,309.7 V 571 H 783.2 C 783.2,411.8 662.5,309.7 524.5,309.7 Z"
         id="path4" />
    </g>
    <g
       id="g8" />
    <g
       id="g10" />
    <g
       id="g12" />
    <g
       id="g14" />
    <g
       id="g16" />
    <g
       id="g18" />
    <g
       id="g20" />
    <g
       id="g22" />
    <g
       id="g24" />
    <g
       id="g26" />
    <g
       id="g28" />
    <g
       id="g30" />
    <g
       id="g32" />
    <g
       id="g34" />
    <g
       id="g36" />
  </g>
</svg>
